<?xml version="1.0" encoding="UTF-8" standalone="no"?>
<svg
   width="560"
   height="500"
   viewBox="0 0 560 500"
   id="svg2"
   version="1.1"
   inkscape:version="1.2.2 (b0a8486541, 2022-12-01)"
   sodipodi:docname="13-usman-class-specification.svg"
   inkscape:export-filename="13-usman-class-specification.png"
   inkscape:export-xdpi="96"
   inkscape:export-ydpi="96"
   xmlns:inkscape="http://www.inkscape.org/namespaces/inkscape"
   xmlns:sodipodi="http://sodipodi.sourceforge.net/DTD/sodipodi-0.dtd"
   xmlns="http://www.w3.org/2000/svg"
   xmlns:svg="http://www.w3.org/2000/svg"
   xmlns:rdf="http://www.w3.org/1999/02/22-rdf-syntax-ns#"
   xmlns:cc="http://creativecommons.org/ns#"
   xmlns:dc="http://purl.org/dc/elements/1.1/">
  <defs
     id="defs4">
    <inkscape:path-effect
       is_visible="true"
       id="path-effect628"
       effect="spiro"
       lpeversion="0" />
    <inkscape:path-effect
       is_visible="true"
       id="path-effect624"
       effect="spiro"
       lpeversion="0" />
    <inkscape:path-effect
       effect="fillet_chamfer"
       id="path-effect1784"
       is_visible="true"
       lpeversion="1"
       nodesatellites_param="F,0,0,1,0,0,0,1 @ F,0,0,1,0,0,0,1 @ F,0,0,1,0,10,0,1 @ F,0,0,1,0,10,0,1"
       unit="px"
       method="auto"
       mode="F"
       radius="10"
       chamfer_steps="1"
       flexible="false"
       use_knot_distance="true"
       apply_no_radius="true"
       apply_with_radius="true"
       only_selected="false"
       hide_knots="false" />
    <inkscape:path-effect
       effect="fillet_chamfer"
       id="path-effect1782"
       is_visible="true"
       lpeversion="1"
       nodesatellites_param="F,0,0,1,0,10,0,1 @ F,0,0,1,0,10,0,1 @ F,0,0,1,0,0,0,1 @ F,0,0,1,0,0,0,1"
       unit="px"
       method="auto"
       mode="F"
       radius="10"
       chamfer_steps="1"
       flexible="false"
       use_knot_distance="true"
       apply_no_radius="true"
       apply_with_radius="true"
       only_selected="false"
       hide_knots="false" />
    <inkscape:path-effect
       effect="fillet_chamfer"
       id="path-effect1780"
       is_visible="true"
       lpeversion="1"
       nodesatellites_param="F,0,0,1,0,0,0,1 @ F,0,0,1,0,0,0,1 @ F,0,0,1,0,10,0,1 @ F,0,0,1,0,10,0,1"
       unit="px"
       method="auto"
       mode="F"
       radius="10"
       chamfer_steps="1"
       flexible="false"
       use_knot_distance="true"
       apply_no_radius="true"
       apply_with_radius="true"
       only_selected="false"
       hide_knots="false" />
    <inkscape:path-effect
       effect="fillet_chamfer"
       id="path-effect1776"
       is_visible="true"
       lpeversion="1"
       nodesatellites_param="F,0,0,1,0,10,0,1 @ F,0,0,1,0,10,0,1 @ F,0,0,1,0,0,0,1 @ F,0,0,1,0,0,0,1"
       unit="px"
       method="auto"
       mode="F"
       radius="10"
       chamfer_steps="1"
       flexible="false"
       use_knot_distance="true"
       apply_no_radius="true"
       apply_with_radius="true"
       only_selected="false"
       hide_knots="false" />
    <inkscape:path-effect
       effect="fillet_chamfer"
       id="path-effect1774"
       is_visible="true"
       lpeversion="1"
       nodesatellites_param="F,0,0,1,0,0,0,1 @ F,0,0,1,0,0,0,1 @ F,0,0,1,0,10,0,1 @ F,0,0,1,0,10,0,1"
       unit="px"
       method="auto"
       mode="F"
       radius="10"
       chamfer_steps="1"
       flexible="false"
       use_knot_distance="true"
       apply_no_radius="true"
       apply_with_radius="true"
       only_selected="false"
       hide_knots="false" />
    <inkscape:path-effect
       effect="fillet_chamfer"
       id="path-effect1772"
       is_visible="true"
       lpeversion="1"
       nodesatellites_param="F,0,0,1,0,10,0,1 @ F,0,0,1,0,10,0,1 @ F,0,0,1,0,0,0,1 @ F,0,0,1,0,0,0,1"
       unit="px"
       method="auto"
       mode="F"
       radius="10"
       chamfer_steps="1"
       flexible="false"
       use_knot_distance="true"
       apply_no_radius="true"
       apply_with_radius="true"
       only_selected="false"
       hide_knots="false" />
    <inkscape:path-effect
       effect="fillet_chamfer"
       id="path-effect1770"
       is_visible="true"
       lpeversion="1"
       nodesatellites_param="F,0,0,1,0,0,0,1 @ F,0,0,1,0,0,0,1 @ F,0,0,1,0,10,0,1 @ F,0,0,1,0,10,0,1"
       unit="px"
       method="auto"
       mode="F"
       radius="10"
       chamfer_steps="1"
       flexible="false"
       use_knot_distance="true"
       apply_no_radius="true"
       apply_with_radius="true"
       only_selected="false"
       hide_knots="false" />
    <inkscape:path-effect
       effect="fillet_chamfer"
       id="path-effect1768"
       is_visible="true"
       lpeversion="1"
       nodesatellites_param="F,0,0,1,0,10,0,1 @ F,0,0,1,0,10,0,1 @ F,0,0,1,0,0,0,1 @ F,0,0,1,0,0,0,1"
       unit="px"
       method="auto"
       mode="F"
       radius="10"
       chamfer_steps="1"
       flexible="false"
       use_knot_distance="true"
       apply_no_radius="true"
       apply_with_radius="true"
       only_selected="false"
       hide_knots="false" />
    <inkscape:path-effect
       effect="fillet_chamfer"
       id="path-effect1766"
       is_visible="true"
       lpeversion="1"
       nodesatellites_param="F,0,0,1,0,0,0,1 @ F,0,0,1,0,0,0,1 @ F,0,0,1,0,10,0,1 @ F,0,0,1,0,10,0,1"
       unit="px"
       method="auto"
       mode="F"
       radius="10"
       chamfer_steps="1"
       flexible="false"
       use_knot_distance="true"
       apply_no_radius="true"
       apply_with_radius="true"
       only_selected="false"
       hide_knots="false" />
    <inkscape:path-effect
       effect="fillet_chamfer"
       id="path-effect1764"
       is_visible="true"
       lpeversion="1"
       nodesatellites_param="F,0,0,1,0,10,0,1 @ F,0,0,1,0,10,0,1 @ F,0,0,1,0,0,0,1 @ F,0,0,1,0,0,0,1"
       unit="px"
       method="auto"
       mode="F"
       radius="10"
       chamfer_steps="1"
       flexible="false"
       use_knot_distance="true"
       apply_no_radius="true"
       apply_with_radius="true"
       only_selected="false"
       hide_knots="false" />
    <inkscape:path-effect
       is_visible="true"
       id="path-effect921"
       effect="spiro"
       lpeversion="0" />
    <inkscape:path-effect
       is_visible="true"
       id="path-effect917"
       effect="spiro"
       lpeversion="0" />
    <inkscape:path-effect
       is_visible="true"
       id="path-effect913"
       effect="spiro"
       lpeversion="0" />
    <inkscape:path-effect
       effect="fillet_chamfer"
       id="path-effect380"
       is_visible="true"
       lpeversion="1"
       nodesatellites_param="F,0,0,1,0,0,0,1 @ F,0,0,1,0,0,0,1 @ F,0,0,1,0,10,0,1 @ F,0,0,1,0,10,0,1"
       unit="px"
       method="auto"
       mode="F"
       radius="10"
       chamfer_steps="1"
       flexible="false"
       use_knot_distance="true"
       apply_no_radius="true"
       apply_with_radius="true"
       only_selected="false"
       hide_knots="false" />
    <inkscape:path-effect
       effect="fillet_chamfer"
       id="path-effect378"
       is_visible="true"
       lpeversion="1"
       nodesatellites_param="F,0,0,1,0,10,0,1 @ F,0,0,1,0,10,0,1 @ F,0,0,1,0,0,0,1 @ F,0,0,1,0,0,0,1"
       unit="px"
       method="auto"
       mode="F"
       radius="10"
       chamfer_steps="1"
       flexible="false"
       use_knot_distance="true"
       apply_no_radius="true"
       apply_with_radius="true"
       only_selected="false"
       hide_knots="false" />
    <inkscape:path-effect
       effect="fillet_chamfer"
       id="path-effect376"
       is_visible="true"
       lpeversion="1"
       nodesatellites_param="F,0,0,1,0,0,0,1 @ F,0,0,1,0,0,0,1 @ F,0,0,1,0,10,0,1 @ F,0,0,1,0,10,0,1"
       unit="px"
       method="auto"
       mode="F"
       radius="10"
       chamfer_steps="1"
       flexible="false"
       use_knot_distance="true"
       apply_no_radius="true"
       apply_with_radius="true"
       only_selected="false"
       hide_knots="false" />
    <inkscape:path-effect
       effect="fillet_chamfer"
       id="path-effect374"
       is_visible="true"
       lpeversion="1"
       nodesatellites_param="F,0,0,1,0,10,0,1 @ F,0,0,1,0,10,0,1 @ F,0,0,1,0,0,0,1 @ F,0,0,1,0,0,0,1"
       unit="px"
       method="auto"
       mode="F"
       radius="10"
       chamfer_steps="1"
       flexible="false"
       use_knot_distance="true"
       apply_no_radius="true"
       apply_with_radius="true"
       only_selected="false"
       hide_knots="false" />
    <inkscape:path-effect
       effect="fillet_chamfer"
       id="path-effect372"
       is_visible="true"
       lpeversion="1"
       nodesatellites_param="F,0,0,1,0,0,0,1 @ F,0,0,1,0,0,0,1 @ F,0,0,1,0,10,0,1 @ F,0,0,1,0,10,0,1"
       unit="px"
       method="auto"
       mode="F"
       radius="10"
       chamfer_steps="1"
       flexible="false"
       use_knot_distance="true"
       apply_no_radius="true"
       apply_with_radius="true"
       only_selected="false"
       hide_knots="false" />
    <inkscape:path-effect
       effect="fillet_chamfer"
       id="path-effect370"
       is_visible="true"
       lpeversion="1"
       nodesatellites_param="F,0,0,1,0,10,0,1 @ F,0,0,1,0,10,0,1 @ F,0,0,1,0,0.24105912,0,1 @ F,0,0,1,0,0,0,1"
       unit="px"
       method="auto"
       mode="F"
       radius="10"
       chamfer_steps="1"
       flexible="false"
       use_knot_distance="true"
       apply_no_radius="true"
       apply_with_radius="true"
       only_selected="false"
       hide_knots="false" />
    <inkscape:path-effect
       effect="fillet_chamfer"
       id="path-effect368"
       is_visible="true"
       lpeversion="1"
       nodesatellites_param="F,0,0,1,0,0,0,1 @ F,0,0,1,0,0.8393721,0,1 @ F,0,0,1,0,10,0,1 @ F,0,0,1,0,10,0,1"
       unit="px"
       method="auto"
       mode="F"
       radius="10"
       chamfer_steps="1"
       flexible="false"
       use_knot_distance="true"
       apply_no_radius="true"
       apply_with_radius="true"
       only_selected="false"
       hide_knots="false" />
    <inkscape:path-effect
       effect="fillet_chamfer"
       id="path-effect366"
       is_visible="true"
       lpeversion="1"
       nodesatellites_param="F,0,0,1,0,10,0,1 @ F,0,0,1,0,10,0,1 @ F,0,0,1,0,0,0,1 @ F,0,0,1,0,0,0,1"
       unit="px"
       method="auto"
       mode="F"
       radius="10"
       chamfer_steps="1"
       flexible="false"
       use_knot_distance="true"
       apply_no_radius="true"
       apply_with_radius="true"
       only_selected="false"
       hide_knots="false" />
    <inkscape:path-effect
       is_visible="true"
       id="path-effect1096"
       effect="spiro"
       lpeversion="0" />
    <inkscape:path-effect
       is_visible="true"
       id="path-effect1092"
       effect="spiro"
       lpeversion="0" />
    <inkscape:path-effect
       is_visible="true"
       id="path-effect1088"
       effect="spiro"
       lpeversion="0" />
    <inkscape:path-effect
       is_visible="true"
       id="path-effect722"
       effect="spiro"
       lpeversion="0" />
    <inkscape:path-effect
       is_visible="true"
       id="path-effect718"
       effect="spiro"
       lpeversion="0" />
    <inkscape:path-effect
       is_visible="true"
       id="path-effect710"
       effect="spiro"
       lpeversion="0" />
    <inkscape:path-effect
       is_visible="true"
       id="path-effect704"
       effect="spiro"
       lpeversion="0" />
    <inkscape:path-effect
       is_visible="true"
       id="path-effect8361"
       effect="spiro"
       lpeversion="0" />
    <inkscape:path-effect
       is_visible="true"
       id="path-effect8355"
       effect="spiro"
       lpeversion="0" />
    <inkscape:path-effect
       is_visible="true"
       id="path-effect8349"
       effect="spiro"
       lpeversion="0" />
    <inkscape:path-effect
       is_visible="true"
       id="path-effect8343"
       effect="spiro"
       lpeversion="0" />
    <filter
       style="color-interpolation-filters:sRGB"
       inkscape:label="Drop Shadow"
       id="filter2731"
       width="1.1025126"
       height="1.2719993"
       x="-0.038693465"
       y="-0.10266642">
      <feFlood
         flood-opacity="0.501961"
         flood-color="rgb(0,0,0)"
         result="flood"
         id="feFlood2721" />
      <feComposite
         in="flood"
         in2="SourceGraphic"
         operator="in"
         result="composite1"
         id="feComposite2723" />
      <feGaussianBlur
         in="composite1"
         stdDeviation="3"
         result="blur"
         id="feGaussianBlur2725" />
      <feOffset
         dx="5"
         dy="5"
         result="offset"
         id="feOffset2727" />
      <feComposite
         in="SourceGraphic"
         in2="offset"
         operator="over"
         result="composite2"
         id="feComposite2729" />
    </filter>
    <inkscape:path-effect
       is_visible="true"
       id="path-effect4008"
       effect="spiro"
       lpeversion="0" />
    <inkscape:path-effect
       is_visible="true"
       id="path-effect4010"
       effect="spiro"
       lpeversion="0" />
    <filter
       style="color-interpolation-filters:sRGB;"
       inkscape:label="Title Drop Shadow"
       id="filter511"
       x="-0.0067904017"
       y="-0.084937712"
       width="1.0192395"
       height="1.2406569">
      <feFlood
         flood-opacity="0.498039"
         flood-color="rgb(0,0,0)"
         result="flood"
         id="feFlood501" />
      <feComposite
         in="flood"
         in2="SourceGraphic"
         operator="in"
         result="composite1"
         id="feComposite503" />
      <feGaussianBlur
         in="composite1"
         stdDeviation="1"
         result="blur"
         id="feGaussianBlur505" />
      <feOffset
         dx="2"
         dy="2"
         result="offset"
         id="feOffset507" />
      <feComposite
         in="SourceGraphic"
         in2="offset"
         operator="over"
         result="composite2"
         id="feComposite509" />
    </filter>
  </defs>
  <sodipodi:namedview
     id="base"
     pagecolor="#ffffff"
     bordercolor="#666666"
     borderopacity="1.0"
     inkscape:pageopacity="0.0"
     inkscape:pageshadow="2"
     inkscape:zoom="1.4367347"
     inkscape:cx="275.625"
     inkscape:cy="259.61648"
     inkscape:document-units="px"
     inkscape:current-layer="g10125"
     showgrid="false"
     inkscape:window-width="1914"
     inkscape:window-height="990"
     inkscape:window-x="0"
     inkscape:window-y="24"
     inkscape:window-maximized="1"
     units="px"
     fit-margin-top="0"
     fit-margin-left="0"
     fit-margin-right="0"
     fit-margin-bottom="0"
     showguides="true"
     inkscape:guide-bbox="true"
     inkscape:document-rotation="0"
     inkscape:pagecheckerboard="true"
     inkscape:showpageshadow="2"
     inkscape:deskcolor="#d1d1d1" />
  <metadata
     id="metadata7">
    <rdf:RDF>
      <cc:Work
         rdf:about="">
        <dc:format>image/svg+xml</dc:format>
        <dc:type
           rdf:resource="http://purl.org/dc/dcmitype/StillImage" />
      </cc:Work>
    </rdf:RDF>
  </metadata>
  <g
     inkscape:groupmode="layer"
     id="layer3"
     inkscape:label="Background"
     transform="matrix(1.2444444,0,0,1.2571429,0,245.14285)"
     style="stroke-width:0.799503"
     sodipodi:insensitive="true">
    <rect
       style="opacity:1;fill:#ffffff;fill-opacity:1;fill-rule:evenodd;stroke:none;stroke-width:0.7995;stroke-linecap:butt;stroke-linejoin:round;stroke-miterlimit:4;stroke-dasharray:none;stroke-dashoffset:0;stroke-opacity:1"
       id="rect2455"
       width="450.00003"
       height="397.72726"
       x="0"
       y="-194.99995"
       inkscape:export-filename="13-class-diagram.png"
       inkscape:export-xdpi="96"
       inkscape:export-ydpi="96" />
  </g>
  <g
     inkscape:label="Diagram"
     inkscape:groupmode="layer"
     id="layer1"
     transform="translate(10,-337.36206)"
     sodipodi:insensitive="true">
    <text
       id="text4519"
       y="1128.871"
       x="554.83234"
       style="font-style:normal;font-weight:normal;font-size:40px;line-height:125%;font-family:Sans;letter-spacing:0px;word-spacing:0px;fill:#000000;fill-opacity:1;stroke:none;stroke-width:1px;stroke-linecap:butt;stroke-linejoin:miter;stroke-opacity:1;filter:url(#filter2731)"
       xml:space="preserve" />
    <text
       xml:space="preserve"
       style="font-style:normal;font-weight:normal;font-size:40px;line-height:25px;font-family:Sans;letter-spacing:0px;word-spacing:0px;fill:#000000;fill-opacity:1;stroke:none;stroke-width:1px;stroke-linecap:butt;stroke-linejoin:miter;stroke-opacity:1;filter:url(#filter2731)"
       x="371.80853"
       y="911.33624"
       id="text3702" />
    <text
       xml:space="preserve"
       style="font-style:normal;font-weight:normal;font-size:40px;line-height:25px;font-family:Sans;letter-spacing:0px;word-spacing:0px;fill:#000000;fill-opacity:1;stroke:none;stroke-width:1px;stroke-linecap:butt;stroke-linejoin:miter;stroke-opacity:1;filter:url(#filter2731)"
       x="365.89001"
       y="753.78003"
       id="text7069" />
    <text
       xml:space="preserve"
       style="font-size:85.3333px;line-height:1.25;font-family:'Source Sans Pro';-inkscape-font-specification:'Source Sans Pro';text-align:center;text-anchor:middle;filter:url(#filter2731)"
       x="111.46334"
       y="424.31595"
       id="text3351"><tspan
         sodipodi:role="line"
         id="tspan3349"
         x="111.46334"
         y="424.31595" /></text>
    <g
       id="g1009"
       style="filter:url(#filter2731)"
       transform="translate(0,29.999645)">
      <path
         y="392.86227"
         x="20.5"
         height="150"
         width="199.00002"
         id="rect2737"
         style="display:inline;fill:#ffffff;fill-opacity:1;fill-rule:evenodd;stroke:#000000;stroke-width:1;stroke-linecap:butt;stroke-linejoin:round;stroke-miterlimit:4;stroke-dasharray:none;stroke-dashoffset:0;stroke-opacity:1"
         sodipodi:type="rect"
         d="m 20.5,392.86227 h 199.00002 v 140 a 10,10 135 0 1 -10,10 H 30.5 a 10,10 45 0 1 -10,-10 z"
         inkscape:path-effect="#path-effect1766" />
      <text
         xml:space="preserve"
         style="font-style:normal;font-variant:normal;font-weight:normal;font-stretch:normal;font-size:15px;line-height:125%;font-family:Oswald;-inkscape-font-specification:'Oswald, Normal';font-variant-ligatures:normal;font-variant-caps:normal;font-variant-numeric:normal;font-feature-settings:normal;text-align:start;letter-spacing:0px;word-spacing:0px;writing-mode:lr-tb;text-anchor:start;display:inline;fill:#0d47a1;fill-opacity:1;stroke:none;stroke-width:1px;stroke-linecap:butt;stroke-linejoin:miter;stroke-opacity:1"
         x="39.0625"
         y="410.55688"
         id="text2741"><tspan
           sodipodi:role="line"
           id="tspan2739"
           x="39.0625"
           y="410.55688">id</tspan></text>
      <path
         style="display:inline;fill:#bbdefb;fill-opacity:1;fill-rule:evenodd;stroke:#000000;stroke-width:1;stroke-linecap:butt;stroke-linejoin:round;stroke-miterlimit:4;stroke-dasharray:none;stroke-dashoffset:0;stroke-opacity:1"
         id="rect2743"
         width="198.99998"
         height="25"
         x="20.5"
         y="367.86206"
         sodipodi:type="rect"
         d="m 30.5,367.86206 h 178.99998 a 10,10 45 0 1 10,10 v 15 H 20.5 v -15 a 10,10 135 0 1 10,-10 z"
         inkscape:path-effect="#path-effect1764" />
      <text
         id="text2747"
         y="385.55676"
         x="39.165039"
         style="font-style:normal;font-variant:normal;font-weight:normal;font-stretch:normal;font-size:15px;line-height:125%;font-family:Oswald;-inkscape-font-specification:'Oswald, Normal';font-variant-ligatures:normal;font-variant-caps:normal;font-variant-numeric:normal;font-feature-settings:normal;text-align:start;letter-spacing:0px;word-spacing:0px;writing-mode:lr-tb;text-anchor:start;display:inline;fill:#000000;fill-opacity:1;stroke:none;stroke-width:1px;stroke-linecap:butt;stroke-linejoin:miter;stroke-opacity:1"
         xml:space="preserve"><tspan
           sodipodi:role="line"
           id="tspan2745"
           x="39.165039"
           y="385.55676">User</tspan></text>
      <text
         xml:space="preserve"
         style="font-style:normal;font-variant:normal;font-weight:normal;font-stretch:normal;font-size:15px;line-height:125%;font-family:Oswald;-inkscape-font-specification:'Oswald, Normal';font-variant-ligatures:normal;font-variant-caps:normal;font-variant-numeric:normal;font-feature-settings:normal;text-align:start;letter-spacing:0px;word-spacing:0px;writing-mode:lr-tb;text-anchor:start;display:inline;fill:#0d47a1;fill-opacity:1;stroke:none;stroke-width:1px;stroke-linecap:butt;stroke-linejoin:miter;stroke-opacity:1"
         x="39.165039"
         y="435.5567"
         id="text2765"><tspan
           sodipodi:role="line"
           id="tspan2763"
           x="39.165039"
           y="435.5567">username</tspan></text>
      <text
         xml:space="preserve"
         style="font-style:normal;font-variant:normal;font-weight:normal;font-stretch:normal;font-size:15px;line-height:125%;font-family:Oswald;-inkscape-font-specification:'Oswald, Normal';font-variant-ligatures:normal;font-variant-caps:normal;font-variant-numeric:normal;font-feature-settings:normal;text-align:start;letter-spacing:0px;word-spacing:0px;writing-mode:lr-tb;text-anchor:start;display:inline;fill:#0d47a1;fill-opacity:1;stroke:none;stroke-width:1px;stroke-linecap:butt;stroke-linejoin:miter;stroke-opacity:1"
         x="39.165039"
         y="460.55688"
         id="text591"><tspan
           sodipodi:role="line"
           id="tspan589"
           x="39.165039"
           y="460.55688">password</tspan></text>
      <text
         xml:space="preserve"
         style="font-style:normal;font-variant:normal;font-weight:normal;font-stretch:normal;font-size:15px;line-height:125%;font-family:Oswald;-inkscape-font-specification:'Oswald, Normal';font-variant-ligatures:normal;font-variant-caps:normal;font-variant-numeric:normal;font-feature-settings:normal;text-align:start;letter-spacing:0px;word-spacing:0px;writing-mode:lr-tb;text-anchor:start;display:inline;fill:#0d47a1;fill-opacity:1;stroke:none;stroke-width:1px;stroke-linecap:butt;stroke-linejoin:miter;stroke-opacity:1"
         x="39.165039"
         y="485.5567"
         id="text595"><tspan
           sodipodi:role="line"
           id="tspan593"
           x="39.165039"
           y="485.5567">email</tspan></text>
      <text
         xml:space="preserve"
         style="font-style:normal;font-variant:normal;font-weight:normal;font-stretch:normal;font-size:15px;line-height:125%;font-family:Oswald;-inkscape-font-specification:'Oswald, Normal';font-variant-ligatures:normal;font-variant-caps:normal;font-variant-numeric:normal;font-feature-settings:normal;text-align:start;letter-spacing:0px;word-spacing:0px;writing-mode:lr-tb;text-anchor:start;display:inline;fill:#0d47a1;fill-opacity:1;stroke:none;stroke-width:1px;stroke-linecap:butt;stroke-linejoin:miter;stroke-opacity:1"
         x="39.165039"
         y="510.55688"
         id="text599"><tspan
           sodipodi:role="line"
           id="tspan597"
           x="39.165039"
           y="510.55688">created_at</tspan></text>
      <text
         xml:space="preserve"
         style="font-style:normal;font-variant:normal;font-weight:normal;font-stretch:normal;font-size:15px;line-height:125%;font-family:Oswald;-inkscape-font-specification:'Oswald, Normal';font-variant-ligatures:normal;font-variant-caps:normal;font-variant-numeric:normal;font-feature-settings:normal;text-align:start;letter-spacing:0px;word-spacing:0px;writing-mode:lr-tb;text-anchor:start;display:inline;fill:#0d47a1;fill-opacity:1;stroke:none;stroke-width:1px;stroke-linecap:butt;stroke-linejoin:miter;stroke-opacity:1"
         x="39.165039"
         y="535.5567"
         id="text603"><tspan
           sodipodi:role="line"
           id="tspan601"
           x="39.165039"
           y="535.5567">updated_at</tspan></text>
      <text
         xml:space="preserve"
         style="font-style:normal;font-variant:normal;font-weight:normal;font-stretch:normal;font-size:15px;line-height:125%;font-family:Oswald;-inkscape-font-specification:'Oswald, Normal';font-variant-ligatures:normal;font-variant-caps:normal;font-variant-numeric:normal;font-feature-settings:normal;text-align:start;letter-spacing:0px;word-spacing:0px;writing-mode:lr-tb;text-anchor:start;display:inline;fill:#616161;fill-opacity:1;stroke:none;stroke-width:1px;stroke-linecap:butt;stroke-linejoin:miter;stroke-opacity:1"
         x="139.0625"
         y="410.01831"
         id="text615"><tspan
           sodipodi:role="line"
           id="tspan613"
           x="139.0625"
           y="410.01831">int</tspan></text>
      <text
         xml:space="preserve"
         style="font-style:normal;font-variant:normal;font-weight:normal;font-stretch:normal;font-size:15px;line-height:125%;font-family:Oswald;-inkscape-font-specification:'Oswald, Normal';font-variant-ligatures:normal;font-variant-caps:normal;font-variant-numeric:normal;font-feature-settings:normal;text-align:start;letter-spacing:0px;word-spacing:0px;writing-mode:lr-tb;text-anchor:start;display:inline;fill:#616161;fill-opacity:1;stroke:none;stroke-width:1px;stroke-linecap:butt;stroke-linejoin:miter;stroke-opacity:1"
         x="139.0625"
         y="435.01831"
         id="text619"><tspan
           sodipodi:role="line"
           id="tspan617"
           x="139.0625"
           y="435.01831">string</tspan></text>
      <text
         xml:space="preserve"
         style="font-style:normal;font-variant:normal;font-weight:normal;font-stretch:normal;font-size:15px;line-height:125%;font-family:Oswald;-inkscape-font-specification:'Oswald, Normal';font-variant-ligatures:normal;font-variant-caps:normal;font-variant-numeric:normal;font-feature-settings:normal;text-align:start;letter-spacing:0px;word-spacing:0px;writing-mode:lr-tb;text-anchor:start;display:inline;fill:#616161;fill-opacity:1;stroke:none;stroke-width:1px;stroke-linecap:butt;stroke-linejoin:miter;stroke-opacity:1"
         x="139.0625"
         y="460.01831"
         id="text623"><tspan
           sodipodi:role="line"
           id="tspan621"
           x="139.0625"
           y="460.01831">string</tspan></text>
      <text
         xml:space="preserve"
         style="font-style:normal;font-variant:normal;font-weight:normal;font-stretch:normal;font-size:15px;line-height:125%;font-family:Oswald;-inkscape-font-specification:'Oswald, Normal';font-variant-ligatures:normal;font-variant-caps:normal;font-variant-numeric:normal;font-feature-settings:normal;text-align:start;letter-spacing:0px;word-spacing:0px;writing-mode:lr-tb;text-anchor:start;display:inline;fill:#616161;fill-opacity:1;stroke:none;stroke-width:1px;stroke-linecap:butt;stroke-linejoin:miter;stroke-opacity:1"
         x="139.0625"
         y="485.01831"
         id="text627"><tspan
           sodipodi:role="line"
           id="tspan625"
           x="139.0625"
           y="485.01831">string</tspan></text>
      <text
         xml:space="preserve"
         style="font-style:normal;font-variant:normal;font-weight:normal;font-stretch:normal;font-size:15px;line-height:125%;font-family:Oswald;-inkscape-font-specification:'Oswald, Normal';font-variant-ligatures:normal;font-variant-caps:normal;font-variant-numeric:normal;font-feature-settings:normal;text-align:start;letter-spacing:0px;word-spacing:0px;writing-mode:lr-tb;text-anchor:start;display:inline;fill:#616161;fill-opacity:1;stroke:none;stroke-width:1px;stroke-linecap:butt;stroke-linejoin:miter;stroke-opacity:1"
         x="139.0625"
         y="510.01831"
         id="text631"><tspan
           sodipodi:role="line"
           id="tspan629"
           x="139.0625"
           y="510.01831">datetime</tspan></text>
      <text
         xml:space="preserve"
         style="font-style:normal;font-variant:normal;font-weight:normal;font-stretch:normal;font-size:15px;line-height:125%;font-family:Oswald;-inkscape-font-specification:'Oswald, Normal';font-variant-ligatures:normal;font-variant-caps:normal;font-variant-numeric:normal;font-feature-settings:normal;text-align:start;letter-spacing:0px;word-spacing:0px;writing-mode:lr-tb;text-anchor:start;display:inline;fill:#616161;fill-opacity:1;stroke:none;stroke-width:1px;stroke-linecap:butt;stroke-linejoin:miter;stroke-opacity:1"
         x="139.0625"
         y="535.01831"
         id="text635"><tspan
           sodipodi:role="line"
           id="tspan633"
           x="139.0625"
           y="535.01831">datetime</tspan></text>
    </g>
    <g
       id="g1026"
       transform="translate(0,129.99965)"
       style="filter:url(#filter2731)">
      <path
         y="492.86206"
         x="20.499998"
         height="75.000008"
         width="199.00002"
         id="rect600-3"
         style="display:inline;fill:#ffffff;fill-opacity:1;fill-rule:evenodd;stroke:#000000;stroke-width:1;stroke-linecap:butt;stroke-linejoin:round;stroke-miterlimit:4;stroke-dasharray:none;stroke-dashoffset:0;stroke-opacity:1"
         sodipodi:type="rect"
         d="M 20.499998,492.86206 H 219.50001 v 65.00001 a 10,10 135 0 1 -10,10 H 30.499998 a 10,10 45 0 1 -10,-10 z"
         inkscape:path-effect="#path-effect1770" />
      <text
         xml:space="preserve"
         style="font-style:normal;font-variant:normal;font-weight:normal;font-stretch:normal;font-size:15px;line-height:125%;font-family:Oswald;-inkscape-font-specification:'Oswald, Normal';font-variant-ligatures:normal;font-variant-caps:normal;font-variant-numeric:normal;font-feature-settings:normal;text-align:start;letter-spacing:0px;word-spacing:0px;writing-mode:lr-tb;text-anchor:start;display:inline;fill:#616161;fill-opacity:1;stroke:none;stroke-width:1px;stroke-linecap:butt;stroke-linejoin:miter;stroke-opacity:1"
         x="149.49463"
         y="510.01831"
         id="text615-6"><tspan
           sodipodi:role="line"
           id="tspan613-2"
           x="149.49463"
           y="510.01831">int</tspan></text>
      <text
         xml:space="preserve"
         style="font-style:normal;font-variant:normal;font-weight:normal;font-stretch:normal;font-size:15px;line-height:125%;font-family:Oswald;-inkscape-font-specification:'Oswald, Normal';font-variant-ligatures:normal;font-variant-caps:normal;font-variant-numeric:normal;font-feature-settings:normal;text-align:start;letter-spacing:0px;word-spacing:0px;writing-mode:lr-tb;text-anchor:start;display:inline;fill:#616161;fill-opacity:1;stroke:none;stroke-width:1px;stroke-linecap:butt;stroke-linejoin:miter;stroke-opacity:1"
         x="149.49463"
         y="535.01825"
         id="text619-9"><tspan
           sodipodi:role="line"
           id="tspan617-1"
           x="149.49463"
           y="535.01825">string</tspan></text>
      <text
         xml:space="preserve"
         style="font-style:normal;font-variant:normal;font-weight:normal;font-stretch:normal;font-size:15px;line-height:125%;font-family:Oswald;-inkscape-font-specification:'Oswald, Normal';font-variant-ligatures:normal;font-variant-caps:normal;font-variant-numeric:normal;font-feature-settings:normal;text-align:start;letter-spacing:0px;word-spacing:0px;writing-mode:lr-tb;text-anchor:start;display:inline;fill:#616161;fill-opacity:1;stroke:none;stroke-width:1px;stroke-linecap:butt;stroke-linejoin:miter;stroke-opacity:1"
         x="149.49463"
         y="560.01825"
         id="text623-2"><tspan
           sodipodi:role="line"
           id="tspan621-7"
           x="149.49463"
           y="560.01825">string</tspan></text>
      <text
         xml:space="preserve"
         style="font-style:normal;font-variant:normal;font-weight:normal;font-stretch:normal;font-size:15px;line-height:125%;font-family:Oswald;-inkscape-font-specification:'Oswald, Normal';font-variant-ligatures:normal;font-variant-caps:normal;font-variant-numeric:normal;font-feature-settings:normal;text-align:start;letter-spacing:0px;word-spacing:0px;writing-mode:lr-tb;text-anchor:start;display:inline;fill:#0d47a1;fill-opacity:1;stroke:none;stroke-width:1px;stroke-linecap:butt;stroke-linejoin:miter;stroke-opacity:1"
         x="39.0625"
         y="510.47974"
         id="text574"><tspan
           sodipodi:role="line"
           id="tspan572"
           x="39.0625"
           y="510.47974">id</tspan></text>
      <path
         style="display:inline;fill:#bbdefb;fill-opacity:1;fill-rule:evenodd;stroke:#000000;stroke-width:1;stroke-linecap:butt;stroke-linejoin:round;stroke-miterlimit:4;stroke-dasharray:none;stroke-dashoffset:0;stroke-opacity:1"
         id="rect576"
         width="198.99998"
         height="25"
         x="20.5"
         y="467.86206"
         sodipodi:type="rect"
         d="m 30.5,467.86206 h 178.99998 a 10,10 45 0 1 10,10 v 15 H 20.5 v -15 a 10,10 135 0 1 10,-10 z"
         inkscape:path-effect="#path-effect1768" />
      <text
         id="text580"
         y="485.55676"
         x="39.0625"
         style="font-style:normal;font-variant:normal;font-weight:normal;font-stretch:normal;font-size:15px;line-height:125%;font-family:Oswald;-inkscape-font-specification:'Oswald, Normal';font-variant-ligatures:normal;font-variant-caps:normal;font-variant-numeric:normal;font-feature-settings:normal;text-align:start;letter-spacing:0px;word-spacing:0px;writing-mode:lr-tb;text-anchor:start;display:inline;fill:#000000;fill-opacity:1;stroke:none;stroke-width:1px;stroke-linecap:butt;stroke-linejoin:miter;stroke-opacity:1"
         xml:space="preserve"><tspan
           sodipodi:role="line"
           id="tspan578"
           x="39.0625"
           y="485.55676">Role</tspan></text>
      <text
         xml:space="preserve"
         style="font-style:normal;font-variant:normal;font-weight:normal;font-stretch:normal;font-size:15px;line-height:125%;font-family:Oswald;-inkscape-font-specification:'Oswald, Normal';font-variant-ligatures:normal;font-variant-caps:normal;font-variant-numeric:normal;font-feature-settings:normal;text-align:start;letter-spacing:0px;word-spacing:0px;writing-mode:lr-tb;text-anchor:start;display:inline;fill:#0d47a1;fill-opacity:1;stroke:none;stroke-width:1px;stroke-linecap:butt;stroke-linejoin:miter;stroke-opacity:1"
         x="39.143066"
         y="535.5567"
         id="text584"><tspan
           sodipodi:role="line"
           id="tspan582"
           x="39.143066"
           y="535.5567">name</tspan></text>
      <text
         xml:space="preserve"
         style="font-style:normal;font-variant:normal;font-weight:normal;font-stretch:normal;font-size:15px;line-height:125%;font-family:Oswald;-inkscape-font-specification:'Oswald, Normal';font-variant-ligatures:normal;font-variant-caps:normal;font-variant-numeric:normal;font-feature-settings:normal;text-align:start;letter-spacing:0px;word-spacing:0px;writing-mode:lr-tb;text-anchor:start;display:inline;fill:#0d47a1;fill-opacity:1;stroke:none;stroke-width:1px;stroke-linecap:butt;stroke-linejoin:miter;stroke-opacity:1"
         x="39.143066"
         y="560.5567"
         id="text607"><tspan
           sodipodi:role="line"
           id="tspan605"
           x="39.143066"
           y="560.5567">description</tspan></text>
      <text
         xml:space="preserve"
         style="font-style:normal;font-variant:normal;font-weight:normal;font-stretch:normal;font-size:15px;line-height:125%;font-family:Oswald;-inkscape-font-specification:'Oswald, Normal';font-variant-ligatures:normal;font-variant-caps:normal;font-variant-numeric:normal;font-feature-settings:normal;text-align:start;letter-spacing:0px;word-spacing:0px;writing-mode:lr-tb;text-anchor:start;display:inline;fill:#0d47a1;fill-opacity:1;stroke:none;stroke-width:1px;stroke-linecap:butt;stroke-linejoin:miter;stroke-opacity:1"
         x="39.0625"
         y="510.47974"
         id="text1255"><tspan
           sodipodi:role="line"
           id="tspan1253"
           x="39.0625"
           y="510.47974">id</tspan></text>
    </g>
    <g
       id="g665"
       transform="translate(300,29.999645)"
       style="filter:url(#filter2731)">
      <path
         y="392.86224"
         x="20.5"
         height="50"
         width="199.00002"
         id="rect600"
         style="display:inline;fill:#ffffff;fill-opacity:1;fill-rule:evenodd;stroke:#000000;stroke-width:1;stroke-linecap:butt;stroke-linejoin:round;stroke-miterlimit:4;stroke-dasharray:none;stroke-dashoffset:0;stroke-opacity:1"
         sodipodi:type="rect"
         d="m 20.5,392.86224 h 199.00002 v 40 a 10,10 135 0 1 -10,10 H 30.5 a 10,10 45 0 1 -10,-10 z"
         inkscape:path-effect="#path-effect1780" />
      <text
         xml:space="preserve"
         style="font-style:normal;font-variant:normal;font-weight:normal;font-stretch:normal;font-size:15px;line-height:125%;font-family:Oswald;-inkscape-font-specification:'Oswald, Normal';font-variant-ligatures:normal;font-variant-caps:normal;font-variant-numeric:normal;font-feature-settings:normal;text-align:start;letter-spacing:0px;word-spacing:0px;writing-mode:lr-tb;text-anchor:start;display:inline;fill:#0d47a1;fill-opacity:1;stroke:none;stroke-width:1px;stroke-linecap:butt;stroke-linejoin:miter;stroke-opacity:1"
         x="39.165039"
         y="435.55688"
         id="text604"><tspan
           sodipodi:role="line"
           id="tspan602"
           x="39.165039"
           y="435.55688">role_id</tspan></text>
      <path
         style="display:inline;fill:#bbdefb;fill-opacity:1;fill-rule:evenodd;stroke:#000000;stroke-width:1;stroke-linecap:butt;stroke-linejoin:round;stroke-miterlimit:4;stroke-dasharray:none;stroke-dashoffset:0;stroke-opacity:1"
         id="rect606"
         width="198.99998"
         height="25"
         x="20.5"
         y="367.86206"
         sodipodi:type="rect"
         d="m 30.5,367.86206 h 178.99998 a 10,10 45 0 1 10,10 v 15 H 20.5 v -15 a 10,10 135 0 1 10,-10 z"
         inkscape:path-effect="#path-effect1776" />
      <text
         id="text610"
         y="385.55676"
         x="39.165039"
         style="font-style:normal;font-variant:normal;font-weight:normal;font-stretch:normal;font-size:15px;line-height:125%;font-family:Oswald;-inkscape-font-specification:'Oswald, Normal';font-variant-ligatures:normal;font-variant-caps:normal;font-variant-numeric:normal;font-feature-settings:normal;text-align:start;letter-spacing:0px;word-spacing:0px;writing-mode:lr-tb;text-anchor:start;display:inline;fill:#000000;fill-opacity:1;stroke:none;stroke-width:1px;stroke-linecap:butt;stroke-linejoin:miter;stroke-opacity:1"
         xml:space="preserve"><tspan
           sodipodi:role="line"
           id="tspan608"
           x="39.165039"
           y="385.55676">UserRole</tspan></text>
      <text
         xml:space="preserve"
         style="font-style:normal;font-variant:normal;font-weight:normal;font-stretch:normal;font-size:15px;line-height:125%;font-family:Oswald;-inkscape-font-specification:'Oswald, Normal';font-variant-ligatures:normal;font-variant-caps:normal;font-variant-numeric:normal;font-feature-settings:normal;text-align:start;letter-spacing:0px;word-spacing:0px;writing-mode:lr-tb;text-anchor:start;display:inline;fill:#0d47a1;fill-opacity:1;stroke:none;stroke-width:1px;stroke-linecap:butt;stroke-linejoin:miter;stroke-opacity:1"
         x="39.165039"
         y="410.55688"
         id="text545"><tspan
           sodipodi:role="line"
           id="tspan543"
           x="39.165039"
           y="410.55688">user_id</tspan></text>
      <text
         xml:space="preserve"
         style="font-style:normal;font-variant:normal;font-weight:normal;font-stretch:normal;font-size:15px;line-height:125%;font-family:Oswald;-inkscape-font-specification:'Oswald, Normal';font-variant-ligatures:normal;font-variant-caps:normal;font-variant-numeric:normal;font-feature-settings:normal;text-align:start;letter-spacing:0px;word-spacing:0px;writing-mode:lr-tb;text-anchor:start;display:inline;fill:#616161;fill-opacity:1;stroke:none;stroke-width:1px;stroke-linecap:butt;stroke-linejoin:miter;stroke-opacity:1"
         x="139.16504"
         y="410.55688"
         id="text1536"><tspan
           sodipodi:role="line"
           id="tspan1534"
           x="139.16504"
           y="410.55688">int</tspan></text>
      <text
         xml:space="preserve"
         style="font-style:normal;font-variant:normal;font-weight:normal;font-stretch:normal;font-size:15px;line-height:125%;font-family:Oswald;-inkscape-font-specification:'Oswald, Normal';font-variant-ligatures:normal;font-variant-caps:normal;font-variant-numeric:normal;font-feature-settings:normal;text-align:start;letter-spacing:0px;word-spacing:0px;writing-mode:lr-tb;text-anchor:start;display:inline;fill:#616161;fill-opacity:1;stroke:none;stroke-width:1px;stroke-linecap:butt;stroke-linejoin:miter;stroke-opacity:1"
         x="139.16504"
         y="435.55688"
         id="text1642"><tspan
           sodipodi:role="line"
           id="tspan1640"
           x="139.16504"
           y="435.55688">int</tspan></text>
    </g>
    <g
       id="g1058"
       transform="translate(0,254.99965)"
       style="filter:url(#filter2731)">
      <path
         y="492.86206"
         x="20.499998"
         height="75.000008"
         width="199.00002"
         id="rect600-6"
         style="display:inline;fill:#ffffff;fill-opacity:1;fill-rule:evenodd;stroke:#000000;stroke-width:1;stroke-linecap:butt;stroke-linejoin:round;stroke-miterlimit:4;stroke-dasharray:none;stroke-dashoffset:0;stroke-opacity:1"
         sodipodi:type="rect"
         d="M 20.499998,492.86206 H 219.50001 v 65.00001 a 10,10 135 0 1 -10,10 H 30.499998 a 10,10 45 0 1 -10,-10 z"
         inkscape:path-effect="#path-effect1774" />
      <text
         xml:space="preserve"
         style="font-style:normal;font-variant:normal;font-weight:normal;font-stretch:normal;font-size:15px;line-height:125%;font-family:Oswald;-inkscape-font-specification:'Oswald, Normal';font-variant-ligatures:normal;font-variant-caps:normal;font-variant-numeric:normal;font-feature-settings:normal;text-align:start;letter-spacing:0px;word-spacing:0px;writing-mode:lr-tb;text-anchor:start;display:inline;fill:#616161;fill-opacity:1;stroke:none;stroke-width:1px;stroke-linecap:butt;stroke-linejoin:miter;stroke-opacity:1"
         x="149.49463"
         y="510.01831"
         id="text615-0"><tspan
           sodipodi:role="line"
           id="tspan613-9"
           x="149.49463"
           y="510.01831">int</tspan></text>
      <text
         xml:space="preserve"
         style="font-style:normal;font-variant:normal;font-weight:normal;font-stretch:normal;font-size:15px;line-height:125%;font-family:Oswald;-inkscape-font-specification:'Oswald, Normal';font-variant-ligatures:normal;font-variant-caps:normal;font-variant-numeric:normal;font-feature-settings:normal;text-align:start;letter-spacing:0px;word-spacing:0px;writing-mode:lr-tb;text-anchor:start;display:inline;fill:#616161;fill-opacity:1;stroke:none;stroke-width:1px;stroke-linecap:butt;stroke-linejoin:miter;stroke-opacity:1"
         x="149.49463"
         y="535.01831"
         id="text619-3"><tspan
           sodipodi:role="line"
           id="tspan617-6"
           x="149.49463"
           y="535.01831">string</tspan></text>
      <text
         xml:space="preserve"
         style="font-style:normal;font-variant:normal;font-weight:normal;font-stretch:normal;font-size:15px;line-height:125%;font-family:Oswald;-inkscape-font-specification:'Oswald, Normal';font-variant-ligatures:normal;font-variant-caps:normal;font-variant-numeric:normal;font-feature-settings:normal;text-align:start;letter-spacing:0px;word-spacing:0px;writing-mode:lr-tb;text-anchor:start;display:inline;fill:#616161;fill-opacity:1;stroke:none;stroke-width:1px;stroke-linecap:butt;stroke-linejoin:miter;stroke-opacity:1"
         x="149.49463"
         y="560.01825"
         id="text623-0"><tspan
           sodipodi:role="line"
           id="tspan621-6"
           x="149.49463"
           y="560.01825">string</tspan></text>
      <text
         xml:space="preserve"
         style="font-style:normal;font-variant:normal;font-weight:normal;font-stretch:normal;font-size:15px;line-height:125%;font-family:Oswald;-inkscape-font-specification:'Oswald, Normal';font-variant-ligatures:normal;font-variant-caps:normal;font-variant-numeric:normal;font-feature-settings:normal;text-align:start;letter-spacing:0px;word-spacing:0px;writing-mode:lr-tb;text-anchor:start;display:inline;fill:#0d47a1;fill-opacity:1;stroke:none;stroke-width:1px;stroke-linecap:butt;stroke-linejoin:miter;stroke-opacity:1"
         x="39.143066"
         y="510.55688"
         id="text1032"><tspan
           sodipodi:role="line"
           id="tspan1030"
           x="39.143066"
           y="510.55688">id</tspan></text>
      <path
         style="display:inline;fill:#bbdefb;fill-opacity:1;fill-rule:evenodd;stroke:#000000;stroke-width:1;stroke-linecap:butt;stroke-linejoin:round;stroke-miterlimit:4;stroke-dasharray:none;stroke-dashoffset:0;stroke-opacity:1"
         id="rect1034"
         width="198.99998"
         height="25"
         x="20.5"
         y="467.86206"
         sodipodi:type="rect"
         d="m 30.5,467.86206 h 178.99998 a 10,10 45 0 1 10,10 v 15 H 20.5 v -15 a 10,10 135 0 1 10,-10 z"
         inkscape:path-effect="#path-effect1772" />
      <text
         id="text1038"
         y="485.55676"
         x="39.0625"
         style="font-style:normal;font-variant:normal;font-weight:normal;font-stretch:normal;font-size:15px;line-height:125%;font-family:Oswald;-inkscape-font-specification:'Oswald, Normal';font-variant-ligatures:normal;font-variant-caps:normal;font-variant-numeric:normal;font-feature-settings:normal;text-align:start;letter-spacing:0px;word-spacing:0px;writing-mode:lr-tb;text-anchor:start;display:inline;fill:#000000;fill-opacity:1;stroke:none;stroke-width:1px;stroke-linecap:butt;stroke-linejoin:miter;stroke-opacity:1"
         xml:space="preserve"><tspan
           sodipodi:role="line"
           id="tspan1036"
           x="39.0625"
           y="485.55676">Permission</tspan></text>
      <text
         xml:space="preserve"
         style="font-style:normal;font-variant:normal;font-weight:normal;font-stretch:normal;font-size:15px;line-height:125%;font-family:Oswald;-inkscape-font-specification:'Oswald, Normal';font-variant-ligatures:normal;font-variant-caps:normal;font-variant-numeric:normal;font-feature-settings:normal;text-align:start;letter-spacing:0px;word-spacing:0px;writing-mode:lr-tb;text-anchor:start;display:inline;fill:#0d47a1;fill-opacity:1;stroke:none;stroke-width:1px;stroke-linecap:butt;stroke-linejoin:miter;stroke-opacity:1"
         x="39.143066"
         y="535.5567"
         id="text1042"><tspan
           sodipodi:role="line"
           id="tspan1040"
           x="39.143066"
           y="535.5567">name</tspan></text>
      <text
         xml:space="preserve"
         style="font-style:normal;font-variant:normal;font-weight:normal;font-stretch:normal;font-size:15px;line-height:125%;font-family:Oswald;-inkscape-font-specification:'Oswald, Normal';font-variant-ligatures:normal;font-variant-caps:normal;font-variant-numeric:normal;font-feature-settings:normal;text-align:start;letter-spacing:0px;word-spacing:0px;writing-mode:lr-tb;text-anchor:start;display:inline;fill:#0d47a1;fill-opacity:1;stroke:none;stroke-width:1px;stroke-linecap:butt;stroke-linejoin:miter;stroke-opacity:1"
         x="39.143066"
         y="560.5567"
         id="text611"><tspan
           sodipodi:role="line"
           id="tspan609"
           x="39.143066"
           y="560.5567">description</tspan></text>
    </g>
    <g
       id="g2059"
       transform="translate(300,229.99965)"
       style="filter:url(#filter2731)">
      <path
         y="392.86224"
         x="20.5"
         height="50"
         width="199.00002"
         id="path2027"
         style="display:inline;fill:#ffffff;fill-opacity:1;fill-rule:evenodd;stroke:#000000;stroke-width:1;stroke-linecap:butt;stroke-linejoin:round;stroke-miterlimit:4;stroke-dasharray:none;stroke-dashoffset:0;stroke-opacity:1"
         sodipodi:type="rect"
         d="m 20.5,392.86224 h 199.00002 v 40 a 10,10 135 0 1 -10,10 H 30.5 a 10,10 45 0 1 -10,-10 z"
         inkscape:path-effect="#path-effect1784" />
      <text
         xml:space="preserve"
         style="font-style:normal;font-variant:normal;font-weight:normal;font-stretch:normal;font-size:15px;line-height:125%;font-family:Oswald;-inkscape-font-specification:'Oswald, Normal';font-variant-ligatures:normal;font-variant-caps:normal;font-variant-numeric:normal;font-feature-settings:normal;text-align:start;letter-spacing:0px;word-spacing:0px;writing-mode:lr-tb;text-anchor:start;display:inline;fill:#0d47a1;fill-opacity:1;stroke:none;stroke-width:1px;stroke-linecap:butt;stroke-linejoin:miter;stroke-opacity:1"
         x="39.165039"
         y="410.55688"
         id="text2031"><tspan
           sodipodi:role="line"
           id="tspan2029"
           x="39.165039"
           y="410.55688">role_id</tspan></text>
      <path
         style="display:inline;fill:#bbdefb;fill-opacity:1;fill-rule:evenodd;stroke:#000000;stroke-width:1;stroke-linecap:butt;stroke-linejoin:round;stroke-miterlimit:4;stroke-dasharray:none;stroke-dashoffset:0;stroke-opacity:1"
         id="path2033"
         width="198.99998"
         height="25"
         x="20.5"
         y="367.86206"
         sodipodi:type="rect"
         d="m 30.5,367.86206 h 178.99998 a 10,10 45 0 1 10,10 v 15 H 20.5 v -15 a 10,10 135 0 1 10,-10 z"
         inkscape:path-effect="#path-effect1782" />
      <text
         id="text2037"
         y="385.55676"
         x="39.165039"
         style="font-style:normal;font-variant:normal;font-weight:normal;font-stretch:normal;font-size:15px;line-height:125%;font-family:Oswald;-inkscape-font-specification:'Oswald, Normal';font-variant-ligatures:normal;font-variant-caps:normal;font-variant-numeric:normal;font-feature-settings:normal;text-align:start;letter-spacing:0px;word-spacing:0px;writing-mode:lr-tb;text-anchor:start;display:inline;fill:#000000;fill-opacity:1;stroke:none;stroke-width:1px;stroke-linecap:butt;stroke-linejoin:miter;stroke-opacity:1"
         xml:space="preserve"><tspan
           sodipodi:role="line"
           id="tspan2035"
           x="39.165039"
           y="385.55676">RolePermission</tspan></text>
      <text
         xml:space="preserve"
         style="font-style:normal;font-variant:normal;font-weight:normal;font-stretch:normal;font-size:15px;line-height:125%;font-family:Oswald;-inkscape-font-specification:'Oswald, Normal';font-variant-ligatures:normal;font-variant-caps:normal;font-variant-numeric:normal;font-feature-settings:normal;text-align:start;letter-spacing:0px;word-spacing:0px;writing-mode:lr-tb;text-anchor:start;display:inline;fill:#0d47a1;fill-opacity:1;stroke:none;stroke-width:1px;stroke-linecap:butt;stroke-linejoin:miter;stroke-opacity:1"
         x="39.165039"
         y="435.55688"
         id="text2041"><tspan
           sodipodi:role="line"
           id="tspan2039"
           x="39.165039"
           y="435.55688">permission_id</tspan></text>
      <text
         xml:space="preserve"
         style="font-style:normal;font-variant:normal;font-weight:normal;font-stretch:normal;font-size:15px;line-height:125%;font-family:Oswald;-inkscape-font-specification:'Oswald, Normal';font-variant-ligatures:normal;font-variant-caps:normal;font-variant-numeric:normal;font-feature-settings:normal;text-align:start;letter-spacing:0px;word-spacing:0px;writing-mode:lr-tb;text-anchor:start;display:inline;fill:#616161;fill-opacity:1;stroke:none;stroke-width:1px;stroke-linecap:butt;stroke-linejoin:miter;stroke-opacity:1"
         x="139.16504"
         y="410.55688"
         id="text2053"><tspan
           sodipodi:role="line"
           id="tspan2051"
           x="139.16504"
           y="410.55688">int</tspan></text>
      <text
         xml:space="preserve"
         style="font-style:normal;font-variant:normal;font-weight:normal;font-stretch:normal;font-size:15px;line-height:125%;font-family:Oswald;-inkscape-font-specification:'Oswald, Normal';font-variant-ligatures:normal;font-variant-caps:normal;font-variant-numeric:normal;font-feature-settings:normal;text-align:start;letter-spacing:0px;word-spacing:0px;writing-mode:lr-tb;text-anchor:start;display:inline;fill:#616161;fill-opacity:1;stroke:none;stroke-width:1px;stroke-linecap:butt;stroke-linejoin:miter;stroke-opacity:1"
         x="139.16504"
         y="435.55688"
         id="text2057"><tspan
           sodipodi:role="line"
           id="tspan2055"
           x="139.16504"
           y="435.55688">int</tspan></text>
    </g>
  </g>
  <g
     inkscape:groupmode="layer"
     id="layer2"
     inkscape:label="Connector"
     style="display:inline"
     transform="translate(0,195)"
     sodipodi:insensitive="true">
    <g
       id="g10112"
       transform="translate(20,30)">
      <path
         inkscape:connector-curvature="0"
         inkscape:original-d="M 280,-124.5 H 229"
         inkscape:path-effect="#path-effect4010"
         id="path4002"
         d="M 280,-124.5 H 229"
         style="fill:none;fill-rule:evenodd;stroke:#000000;stroke-width:0.999993px;stroke-linecap:butt;stroke-linejoin:miter;stroke-opacity:1" />
      <path
         id="rect1437"
         style="fill:#000000;stroke:none;stroke-width:1"
         d="m 220.00001,-130 -10,5.5 10,5.5 10,-5.5 z m 0,1 8.18182,4.5 -8.18182,4.5 -8.18182,-4.5 z" />
      <g
         id="g9025"
         transform="translate(0,-2.5)">
        <rect
           y="-145"
           x="210"
           height="20"
           width="20"
           id="rect2737-2"
           style="display:inline;fill:none;fill-opacity:1;fill-rule:evenodd;stroke:none;stroke-width:0.999997;stroke-linecap:butt;stroke-linejoin:round;stroke-miterlimit:4;stroke-dasharray:none;stroke-dashoffset:0;stroke-opacity:1" />
        <text
           xml:space="preserve"
           style="font-size:14px;line-height:1.25;font-family:'Source Sans Pro';-inkscape-font-specification:'Source Sans Pro';text-align:center;text-anchor:middle"
           x="219.853"
           y="-130.534"
           id="text8365"
           inkscape:transform-center-x="13.58164"
           inkscape:transform-center-y="-4.4647354"><tspan
             sodipodi:role="line"
             id="tspan8363"
             x="219.853"
             y="-130.534"
             style="font-size:14px">1</tspan></text>
      </g>
      <path
         inkscape:connector-curvature="0"
         inkscape:original-d="M 310,-124.5 H 280"
         inkscape:path-effect="#path-effect8355"
         id="path8351"
         d="M 310,-124.5 H 280"
         style="fill:none;fill-rule:evenodd;stroke:#000000;stroke-width:0.99999px;stroke-linecap:butt;stroke-linejoin:miter;stroke-opacity:1" />
      <g
         id="g9041"
         transform="translate(75)">
        <rect
           y="-145"
           x="210"
           height="20"
           width="20"
           id="rect9035"
           style="display:inline;fill:none;fill-opacity:1;fill-rule:evenodd;stroke:none;stroke-width:0.999997;stroke-linecap:butt;stroke-linejoin:round;stroke-miterlimit:4;stroke-dasharray:none;stroke-dashoffset:0;stroke-opacity:1" />
        <text
           xml:space="preserve"
           style="font-size:14px;line-height:1.25;font-family:'Source Sans Pro';-inkscape-font-specification:'Source Sans Pro';text-align:center;text-anchor:middle"
           x="224.853"
           y="-130.534"
           id="text9039"
           inkscape:transform-center-x="13.58164"
           inkscape:transform-center-y="-4.4647354"><tspan
             sodipodi:role="line"
             id="tspan9037"
             x="224.853"
             y="-130.534"
             style="font-size:14px">*</tspan></text>
      </g>
    </g>
    <g
       id="g10125"
       transform="translate(20,129.99965)">
      <path
         inkscape:connector-curvature="0"
         inkscape:original-d="m 250.99998,-39.500002 h -22"
         inkscape:path-effect="#path-effect8343"
         id="path8339"
         d="m 250.99998,-39.500002 h -22"
         style="fill:none;fill-rule:evenodd;stroke:#000000;stroke-width:0.999994px;stroke-linecap:butt;stroke-linejoin:miter;stroke-opacity:1" />
      <path
         inkscape:connector-curvature="0"
         id="path8345"
         d="M 311,-199.5 H 251"
         style="fill:none;fill-rule:evenodd;stroke:#000000;stroke-width:0.999989px;stroke-linecap:butt;stroke-linejoin:miter;stroke-opacity:1" />
      <path
         inkscape:connector-curvature="0"
         inkscape:original-d="M 250.49999,-200 V -39.999991"
         inkscape:path-effect="#path-effect8361"
         id="path8357"
         d="M 250.49999,-200 V -39.999991"
         style="fill:none;fill-rule:evenodd;stroke:#000000;stroke-width:0.999994px;stroke-linecap:butt;stroke-linejoin:miter;stroke-opacity:1" />
      <path
         id="rect1437-0"
         style="display:inline;fill:#000000;stroke:none;stroke-width:1"
         d="m 220,-45 -10,5.5 10,5.5 10,-5.5 z m 0,1 8.18182,4.5 L 220,-35 l -8.18182,-4.5 z" />
      <g
         id="g9033"
         transform="translate(10,87.50035)">
        <rect
           y="-145"
           x="210"
           height="20"
           width="20"
           id="rect9027"
           style="display:inline;fill:none;fill-opacity:1;fill-rule:evenodd;stroke:none;stroke-width:0.999997;stroke-linecap:butt;stroke-linejoin:round;stroke-miterlimit:4;stroke-dasharray:none;stroke-dashoffset:0;stroke-opacity:1" />
        <text
           xml:space="preserve"
           style="font-size:14px;line-height:1.25;font-family:'Source Sans Pro';-inkscape-font-specification:'Source Sans Pro';text-align:center;text-anchor:middle"
           x="219.853"
           y="-130.534"
           id="text9031"
           inkscape:transform-center-x="13.58164"
           inkscape:transform-center-y="-4.4647354"><tspan
             sodipodi:role="line"
             id="tspan9029"
             x="219.853"
             y="-130.534"
             style="font-size:14px">1</tspan></text>
      </g>
      <g
         id="g9049"
         transform="translate(80,-75)">
        <rect
           y="-145"
           x="210"
           height="20"
           width="20"
           id="rect9043"
           style="display:inline;fill:none;fill-opacity:1;fill-rule:evenodd;stroke:none;stroke-width:0.999997;stroke-linecap:butt;stroke-linejoin:round;stroke-miterlimit:4;stroke-dasharray:none;stroke-dashoffset:0;stroke-opacity:1" />
        <text
           xml:space="preserve"
           style="font-size:14px;line-height:1.25;font-family:'Source Sans Pro';-inkscape-font-specification:'Source Sans Pro';text-align:center;text-anchor:middle"
           x="219.853"
           y="-130.534"
           id="text9047"
           inkscape:transform-center-x="13.58164"
           inkscape:transform-center-y="-4.4647354"><tspan
             sodipodi:role="line"
             id="tspan9045"
             x="219.853"
             y="-130.534"
             style="font-size:14px">*</tspan></text>
      </g>
    </g>
    <g
       id="g1084"
       transform="translate(20,254.99965)">
      <path
         inkscape:connector-curvature="0"
         inkscape:original-d="M 291,-24.500002 H 229"
         inkscape:path-effect="#path-effect1088"
         id="path1060"
         d="M 291,-24.500002 H 229"
         style="fill:none;fill-rule:evenodd;stroke:#000000;stroke-width:0.999994px;stroke-linecap:butt;stroke-linejoin:miter;stroke-opacity:1" />
      <path
         inkscape:connector-curvature="0"
         inkscape:original-d="M 310,-124.4 H 290"
         inkscape:path-effect="#path-effect1092"
         id="path1062"
         d="M 310,-124.4 H 290"
         style="fill:none;fill-rule:evenodd;stroke:#000000;stroke-width:0.999995px;stroke-linecap:butt;stroke-linejoin:miter;stroke-opacity:1" />
      <path
         inkscape:connector-curvature="0"
         id="path1064"
         d="M 290.49998,-125 V -24.999998"
         style="fill:none;fill-rule:evenodd;stroke:#000000;stroke-width:0.999989px;stroke-linecap:butt;stroke-linejoin:miter;stroke-opacity:1" />
      <path
         id="path1066"
         style="display:inline;fill:#000000;stroke:none;stroke-width:1"
         d="m 220,-30 -10,5.5 10,5.5 10,-5.5 z m 0,1 8.18182,4.5 L 220,-20 l -8.18182,-4.5 z" />
      <g
         id="g1074"
         transform="translate(0,97.5)">
        <rect
           y="-145"
           x="210"
           height="20"
           width="20"
           id="rect1068"
           style="display:inline;fill:none;fill-opacity:1;fill-rule:evenodd;stroke:none;stroke-width:0.999997;stroke-linecap:butt;stroke-linejoin:round;stroke-miterlimit:4;stroke-dasharray:none;stroke-dashoffset:0;stroke-opacity:1" />
        <text
           xml:space="preserve"
           style="font-size:14px;line-height:1.25;font-family:'Source Sans Pro';-inkscape-font-specification:'Source Sans Pro';text-align:center;text-anchor:middle"
           x="219.853"
           y="-130.534"
           id="text1072"
           inkscape:transform-center-x="13.58164"
           inkscape:transform-center-y="-4.4647354"><tspan
             sodipodi:role="line"
             id="tspan1070"
             x="219.853"
             y="-130.534"
             style="font-size:14px">1</tspan></text>
      </g>
      <g
         id="g1082"
         transform="translate(75)">
        <rect
           y="-145"
           x="210"
           height="20"
           width="20"
           id="rect1076"
           style="display:inline;fill:none;fill-opacity:1;fill-rule:evenodd;stroke:none;stroke-width:0.999997;stroke-linecap:butt;stroke-linejoin:round;stroke-miterlimit:4;stroke-dasharray:none;stroke-dashoffset:0;stroke-opacity:1" />
        <text
           xml:space="preserve"
           style="font-size:14px;line-height:1.25;font-family:'Source Sans Pro';-inkscape-font-specification:'Source Sans Pro';text-align:center;text-anchor:middle"
           x="224.853"
           y="-130.534"
           id="text1080"
           inkscape:transform-center-x="13.58164"
           inkscape:transform-center-y="-4.4647354"><tspan
             sodipodi:role="line"
             id="tspan1078"
             x="224.853"
             y="-130.534"
             style="font-size:14px">*</tspan></text>
      </g>
    </g>
    <g
       id="g620"
       transform="translate(20,230)">
      <path
         inkscape:connector-curvature="0"
         inkscape:original-d="M 280,-124.5 H 229"
         inkscape:path-effect="#path-effect624"
         id="path597"
         d="M 280,-124.5 H 229"
         style="fill:none;fill-rule:evenodd;stroke:#000000;stroke-width:0.999993px;stroke-linecap:butt;stroke-linejoin:miter;stroke-opacity:1" />
      <path
         id="path599"
         style="fill:#000000;stroke:none;stroke-width:1"
         d="m 220.00001,-130 -10,5.5 10,5.5 10,-5.5 z m 0,1 8.18182,4.5 -8.18182,4.5 -8.18182,-4.5 z" />
      <g
         id="g607"
         transform="translate(10,2.5)">
        <rect
           y="-145"
           x="210"
           height="20"
           width="20"
           id="rect601"
           style="display:inline;fill:none;fill-opacity:1;fill-rule:evenodd;stroke:none;stroke-width:0.999997;stroke-linecap:butt;stroke-linejoin:round;stroke-miterlimit:4;stroke-dasharray:none;stroke-dashoffset:0;stroke-opacity:1" />
        <text
           xml:space="preserve"
           style="font-size:14px;line-height:1.25;font-family:'Source Sans Pro';-inkscape-font-specification:'Source Sans Pro';text-align:center;text-anchor:middle"
           x="219.853"
           y="-130.534"
           id="text605"
           inkscape:transform-center-x="13.58164"
           inkscape:transform-center-y="-4.4647354"><tspan
             sodipodi:role="line"
             id="tspan603"
             x="219.853"
             y="-130.534"
             style="font-size:14px">1</tspan></text>
      </g>
      <path
         inkscape:connector-curvature="0"
         inkscape:original-d="M 310,-124.5 H 280"
         inkscape:path-effect="#path-effect628"
         id="path609"
         d="M 310,-124.5 H 280"
         style="fill:none;fill-rule:evenodd;stroke:#000000;stroke-width:0.99999px;stroke-linecap:butt;stroke-linejoin:miter;stroke-opacity:1" />
      <g
         id="g618"
         transform="translate(75)">
        <rect
           y="-145"
           x="210"
           height="20"
           width="20"
           id="rect611"
           style="display:inline;fill:none;fill-opacity:1;fill-rule:evenodd;stroke:none;stroke-width:0.999997;stroke-linecap:butt;stroke-linejoin:round;stroke-miterlimit:4;stroke-dasharray:none;stroke-dashoffset:0;stroke-opacity:1" />
        <text
           xml:space="preserve"
           style="font-size:14px;line-height:1.25;font-family:'Source Sans Pro';-inkscape-font-specification:'Source Sans Pro';text-align:center;text-anchor:middle"
           x="224.853"
           y="-130.534"
           id="text616"
           inkscape:transform-center-x="13.58164"
           inkscape:transform-center-y="-4.4647354"><tspan
             sodipodi:role="line"
             id="tspan614"
             x="224.853"
             y="-130.534"
             style="font-size:14px">*</tspan></text>
      </g>
    </g>
  </g>
  <g
     inkscape:groupmode="layer"
     id="layer4"
     inkscape:label="Title"
     transform="translate(0,-675)"
     sodipodi:insensitive="true">
    <text
       xml:space="preserve"
       style="font-style:normal;font-variant:normal;font-weight:600;font-stretch:normal;font-size:32px;line-height:1.25;font-family:'Source Sans Pro';-inkscape-font-specification:'Source Sans Pro Semi-Bold';filter:url(#filter511)"
       x="100.71998"
       y="711.31201"
       id="text1890"><tspan
         sodipodi:role="line"
         id="tspan1888"
         x="100.71998"
         y="711.31201">User <tspan
   style="fill:#0d47a1"
   id="tspan1892">Management</tspan> System </tspan></text>
  </g>
  <g
     inkscape:groupmode="layer"
     id="layer5"
     inkscape:label="Pallete"
     sodipodi:insensitive="true">
    <circle
       style="opacity:1;fill:#ffffff;stroke:none;stroke-width:5;stroke-opacity:0.247059"
       id="path1598"
       cx="50"
       cy="-100"
       r="50" />
    <circle
       r="50"
       cy="-100"
       cx="200"
       id="circle2447"
       style="opacity:1;fill:#303f9f;stroke:none;stroke-width:5;stroke-opacity:0.247059" />
    <circle
       style="opacity:1;fill:#00796b;stroke:none;stroke-width:5;stroke-opacity:0.247059"
       id="circle2449"
       cx="350"
       cy="-100"
       r="50" />
    <circle
       style="opacity:1;fill:#e65100;stroke:none;stroke-width:5;stroke-opacity:0.247059"
       id="circle838"
       cx="500"
       cy="-100"
       r="50" />
  </g>
</svg>
