@startuml
title User Registration

actor User
participant "User Registration Form" as Form
participant "User Registration Controller" as Controller
participant "User Database" as DB

User -> Form : Open registration form
Form -> User : Display registration form
User -> Form : Submit registration form
Form -> Controller : Process registration form
Controller -> DB : Create user record
DB -> Controller : User created
Controller -> User : Redirect to login page
@enduml
